Place,Sex,Name,CyrillicName,BodyweightKg,Bench1Kg,Bench2Kg,Bench3Kg,Best3BenchKg,Bench4Kg,TotalKg,WeightClassKg,Event,Equipment,Tested,Division,Age,BirthDate
1,F,Svetlana Yurtaeva,Светлана Юртаева,51.1,42.5,45,-50,45,,45,52,B,Raw,No,Open,31,1987-04-02
1,F,Elena Yudina,Елена Юдина,55,45,-50,-50,45,,45,56,B,Raw,No,Open,33,1985-05-03
1,F,Aleksandra Vedeneeva,Александра Веденеева,58.8,75,82.5,85,85,,85,60,B,Raw,No,Open,34,1985-02-25
1,F,Marina Morozova,Марина Морозова,74.6,100,-110,-110,100,,100,75,B,Raw,No,Masters 40-44,40,1978-10-09
1,F,Kristina Prokofeva,Кристина Прокофьева,79,37.5,42.5,47.5,47.5,,47.5,82.5,B,Raw,No,Open,30,1988-11-28
1,M,Vyacheslav Strokov,Вячеслав Строков,58.5,65,70,72.5,72.5,,72.5,60,B,Raw,No,Teen 16-17,16,2003-03-02
1,M,Egor Gurkin,Егор Гуркин,60,90,-92.5,92.5,92.5,,92.5,60,B,Raw,No,Open,30,1988-09-25
1,M,Aleksey Molotov,Алексей Молотов,66.4,-100,-110,110,110,,110,67.5,B,Raw,No,Juniors 20-23,20,1998-07-08
1,M,Ivan Gurkin,Иван Гуркин,61.5,90,95,100,100,,100,67.5,B,Raw,No,Open,30,1988-09-25
1,M,Daniil Moiseev,Даниил Моисеев,74.6,125,130,135,135,,135,75,B,Raw,No,Teen 16-17,17,2001-12-05
1,M,Ilya Varshavskiy,Илья Варшавский,74.4,170,180,-182.5,180,,180,75,B,Raw,No,Open,27,1991-11-03
2,M,Andrey Belyakov,Андрей Беляков,72.7,115,-117.5,-117.5,115,,115,75,B,Raw,No,Open,27,1991-05-14
3,M,Evgeniy Esbin,Евгений Эсбин,75,100,-110,-110,100,,100,75,B,Raw,No,Open,30,1988-08-30
4,M,Artem Korablinov,Артем Кораблинов,68,60,65,67.5,67.5,,67.5,75,B,Raw,No,Open,28,1990-07-16
1,M,Maksim Lobanov,Максим Лобанов,80.8,-80,85,90,90,,90,82.5,B,Raw,No,Teen 13-15,14,2004-11-16
2,M,Vladimir Garshin,Владимир Гаршин,77.8,80,85,-90,85,,85,82.5,B,Raw,No,Teen 13-15,15,2003-05-16
1,M,Nikita Vorobev,Никита Воробьев,81.1,117.5,122.5,125,125,,125,82.5,B,Raw,No,Juniors 20-23,21,1997-05-04
1,M,Vladimir Simonov,Владимир Симонов,80,-120,120,-127.5,120,,120,82.5,B,Raw,No,Open,25,1993-05-06
1,M,Viktor Ovsyanyy,Виктор Овсяный,77.7,100,110,115,115,,115,82.5,B,Raw,No,Masters 60-64,60,1958-04-19
1,M,Mikhail Chugunov,Михаил Чугунов,93.9,70,72.5,75,75,,75,100,B,Raw,No,Teen 13-15,15,2003-04-18
1,M,Vyacheslav Burmistrov,Вячеслав Бурмистров,94.2,145,-155,155,155,,155,100,B,Raw,No,Juniors 20-23,23,1995-07-14
2,M,Kirill Molyukov,Кирилл Молюков,95.6,-135,135,-140,135,,135,100,B,Raw,No,Juniors 20-23,21,1997-04-08
1,M,Vasiliy Zharkov,Василий Жарков,92.1,160,170,-175,170,,170,100,B,Raw,No,Open,39,1979-05-01
2,M,Ruslan Fetisov,Руслан Фетисов,92.7,142.5,150,160,160,,160,100,B,Raw,No,Open,24,1994-04-21
1,M,Andrey Makevnin,Андрей Макевнин,99.6,160,165,170,170,,170,100,B,Raw,No,Masters 55-59,57,1961-05-18
1,M,Pavel Kriulenko,Павел Криуленко,107.1,160,170,175,175,,175,110,B,Raw,No,Juniors 20-23,21,1997-11-20
1,M,Aleksandr Zhuravlev,Александр Журавлев,108.5,170,172.5,-177.5,172.5,,172.5,110,B,Raw,No,Open,46,1972-06-23
1,M,Aleksandr Zhuravlev,Александр Журавлев,108.5,170,172.5,-177.5,172.5,,172.5,110,B,Raw,No,Masters 45-49,46,1972-06-23
1,M,Anton Mozgolov,Антон Мозголов,111.4,160,170,-175,170,,170,125,B,Raw,No,Open,36,1982-08-01
1,M,Andrey Vysotskiy,Андрей Высоцкий,136.1,230,235,-242.5,235,,235,140,B,Raw,No,Open,41,1977-11-19
1,M,Andrey Vysotskiy,Андрей Высоцкий,136.1,230,235,-242.5,235,,235,140,B,Raw,No,Masters 40-44,41,1977-11-19
1,M,Dmitriy Skachkov,Дмитрий Скачков,142.6,180,-185,-185,180,,180,140+,B,Raw,No,Open,42,1977-02-22
1,M,Dmitriy Skachkov,Дмитрий Скачков,142.6,180,-185,-185,180,,180,140+,B,Raw,No,Masters 40-44,42,1977-02-22
1,M,Yulia Medvedeva,Юлия Медведева,82,230,-242.5,242.5,242.5,,242.5,82.5,B,Multi-ply,No,Open,39,1979-07-08
1,M,Ilya Varshavskiy,Илья Варшавский,74.35,260,270,280,280,,280,75,B,Multi-ply,No,Open,27,1991-11-03
1,M,Roman Skobkarev,Роман Скобкарев,87.4,-200,200,-210,200,,200,90,B,Multi-ply,No,Open,32,1986-09-25
1,M,Aleksey Melnikov,Алексей Мельников,99.6,360,-370,,360,,360,100,B,Multi-ply,No,Open,31,1987-10-22
