Place,Name,Sex,Event,Division,WeightClassKg,Equipment,BirthYear,Team,State,BodyweightKg,Squat1Kg,Squat2Kg,Squat3Kg,Best3SquatKg,Bench1Kg,Bench2Kg,Bench3Kg,Best3BenchKg,Deadlift1Kg,Deadlift2Kg,Deadlift3Kg,Best3DeadliftKg,TotalKg,Age,BirthDate
1,Madison Diemert,F,SBD,FR-Jr,72,Raw,1997,,ND,70.75,147.5,157.5,165,165.0,77.5,-80,80,80.0,137.5,147.5,160,160.0,405,,
2,Katelynn Strupp,F,SBD,FR-Jr,72,Raw,1998,Ruckus,MN,70.9,100,105,110,110.0,35,40,-42.5,40.0,105,112.5,117.5,117.5,267.5,,
1,Taylor Phillips,F,SBD,FR-Jr,84+,Raw,1996,,MN,89.6,165,175,180,180.0,90,95,-100,95.0,192.5,200,-207.5,200.0,475,,
1,Desiree Cremers,F,SBD,FR-M1,57,Raw,1977,Northern White Lights,MN,56.65,100,-105,-105,100.0,70,75,82.5,82.5,110,-115,115,115.0,297.5,,
2,Brenna Vuong,F,SBD,FR-M1,57,Raw,1978,,MN,56.5,85,-90,-90,85.0,50,55,-57.5,55.0,97.5,102.5,110,110.0,250,,
1,Jodi Funk,F,SBD,FR-M1,63,Raw,1973,Northern White Lights,MN,59.5,105,117.5,125,125.0,65,70,72.5,72.5,127.5,137.5,142.5,142.5,340,,
2,Stacey Luikaart,F,SBD,FR-M1,63,Raw,1974,,MO,62.05,95,-100,100,100.0,65,67.5,-70,67.5,115,122.5,-130,122.5,290,,
1,Jodi Hastings,F,SBD,FR-M1,72,Raw,1978,,MN,71.3,112.5,120,122.5,122.5,60,67.5,70,70.0,140,147.5,155,155.0,347.5,,
2,Kristy Cannon,F,SBD,FR-M1,72,Raw,1978,Northern White Lights,MN,69.45,117.5,122.5,127.5,127.5,65,70,-72.5,70.0,132.5,142.5,145,145.0,342.5,,
1,Francesca Bill,F,SBD,FR-M1,84,Raw,1975,,MN,82.95,120,130,137.5,137.5,75,80,82.5,82.5,150,160,167.5,167.5,387.5,,
2,Rachel Olstad,F,SBD,FR-M1,84,Raw,1971,ELT Powerlifters,MN,73.35,107.5,112.5,117.5,117.5,57.5,60,-62.5,60.0,130,135,-140,135.0,312.5,,
3,Lisa Amos,F,SBD,FR-M1,84,Raw,1975,ELT Powerlifters,MN,73.35,115,122.5,-125,122.5,55,57.5,-62.5,57.5,122.5,125,-130,125.0,305,,
4,Jennifer Rosario,F,SBD,FR-M1,84,Raw,1972,ELT Powerlifters,MN,76.3,110,-115,115,115.0,-57.5,60,-62.5,60.0,122.5,127.5,130,130.0,305,,
5,Keely Thrawl,F,SBD,FR-M1,84,Raw,1974,ELT Powerlifters,MN,75.3,85,92.5,97.5,97.5,60,-62.5,-62.5,60.0,125,132.5,-140,132.5,290,,
1,Amy Schroeder,F,SBD,FR-M1,84+,Raw,1979,American Strength,MN,115.45,147.5,157.5,-170,157.5,55,62.5,-72.5,62.5,157.5,172.5,185,185.0,405,,
1,Suzanne Kelly,F,SBD,FR-M2,72,Raw,1961,,MN,70.75,75,80,82.5,82.5,-40,40,-42.5,40.0,97.5,105,107.5,107.5,230,,
1,Mary Hall,F,SBD,FR-M2,84,Raw,1965,,IA,75.85,100,102.5,105,105.0,70,72.5,-75,72.5,135,-140,-140,135.0,312.5,,
1,Debbie Fitkin,F,SBD,FR-M3,84+,Raw,1957,,IA,97.25,-100,-102.5,105,105.0,60,-65,65,65.0,125,132.5,137.5,137.5,307.5,,
DQ,Jessilyn Vizenor,F,SBD,FR-O,52,Raw,1985,Northern White Lights,MN,50.95,125,130,-135,130.0,-77.5,-77.5,-77.5,,137.5,142.5,-150,142.5,,,
1,Brenna Vuong,F,SBD,FR-O,57,Raw,1978,,MN,56.5,85,-90,-90,85.0,50,55,-57.5,55.0,97.5,102.5,110,110.0,250,,
2,Rondi Quass,F,SBD,FR-O,57,Raw,2005,,IA,54.7,-85,85,-90,85.0,47.5,-50,-50,47.5,100,-107.5,-110,100.0,232.5,,
1,Jodi Funk,F,SBD,FR-O,63,Raw,1973,Northern White Lights,MN,59.5,105,117.5,125,125.0,65,70,72.5,72.5,127.5,137.5,142.5,142.5,340,,
2,Alison Raaen,F,SBD,FR-O,63,Raw,1991,,SD,60.95,92.5,100,-112.5,100.0,60,65,67.5,67.5,137.5,147.5,152.5,152.5,320,,
3,Hannah Massey,F,SBD,FR-O,63,Raw,1993,,MO,60.1,90,100,110,110.0,57.5,60,62.5,62.5,125,132.5,137.5,137.5,310,,
1,Madison Diemert,F,SBD,FR-O,72,Raw,1997,,ND,70.75,147.5,157.5,165,165.0,77.5,-80,80,80.0,137.5,147.5,160,160.0,405,,
2,Kelsey Webb,F,SBD,FR-O,72,Raw,1989,,IA,71.15,142.5,147.5,150,150.0,75,80,-82.5,80.0,152.5,160,-165,160.0,390,,
3,Elis Bradshaw,F,SBD,FR-O,72,Raw,1981,,MN,69.5,127.5,137.5,145,145.0,67.5,72.5,77.5,77.5,137.5,157.5,160,160.0,382.5,,
4,Lisa Vuong-Deo-Campo,F,SBD,FR-O,72,Raw,1990,,MN,71.85,122.5,132.5,135,135.0,65,72.5,75,75.0,147.5,157.5,160,160.0,370,,
5,Samantha Newton,F,SBD,FR-O,72,Raw,1990,,NE,71.35,-135,135,-142.5,135.0,85,-92.5,-92.5,85.0,130,140,145,145.0,365,,
6,Rita Carrington,F,SBD,FR-O,72,Raw,1991,,MO,71.6,125,132.5,-137.5,132.5,65,70,72.5,72.5,145,152.5,157.5,157.5,362.5,,
7,Mary Happ,F,SBD,FR-O,72,Raw,1995,,NE,69.95,130,140,-147.5,140.0,60,65,-70,65.0,155,-165,-165,155.0,360,,
8,Megan Henrichs,F,SBD,FR-O,72,Raw,1991,,MN,65.55,100,107.5,115,115.0,70,75,80,80.0,125,135,-145,135.0,330,,
9,Kimberly Wolff,F,SBD,FR-O,72,Raw,1985,,MN,70.85,107.5,-112.5,115,115.0,57.5,62.5,-65,62.5,107.5,-117.5,-117.5,107.5,285,,
1,Kendra Bryant,F,SBD,FR-O,84,Raw,1986,,NE,82.15,142.5,150,157.5,157.5,70,75,80,80.0,160,170,-177.5,170.0,407.5,,
2,Jordan Davies,F,SBD,FR-O,84,Raw,1993,,MN,77.25,127.5,137.5,-142.5,137.5,77.5,-82.5,-82.5,77.5,-160,160,170,170.0,385,,
3,Madison Coffey,F,SBD,FR-O,84,Raw,1995,,MN,82.35,127.5,132.5,-135,132.5,82.5,-87.5,-87.5,82.5,117.5,122.5,130,130.0,345,,
4,Rebecca Drechsler,F,SBD,FR-O,84,Raw,1985,,MN,73.15,120,127.5,-135,127.5,60,62.5,-65,62.5,137.5,147.5,-157.7,147.5,337.5,,
1,Taylor Phillips,F,SBD,FR-O,84+,Raw,1996,,MN,89.6,165,175,180,180.0,90,95,-100,95.0,192.5,200,-207.5,200.0,475,,
2,Jennifer Cunningham,F,SBD,FR-O,84+,Raw,1980,ELT Powerlifters,MN,124.2,-160,160,162.5,162.5,85,90,-92.5,90.0,180,185,190,190.0,442.5,,
3,Katie Adams,F,SBD,FR-O,84+,Raw,1976,,KS,125.85,165,175,-182.5,175.0,72.5,-77.5,77.5,77.5,155,165,-170,165.0,417.5,,
4,Amy Schroeder,F,SBD,FR-O,84+,Raw,1979,American Strength,MN,115.45,147.5,157.5,-170,157.5,55,62.5,-72.5,62.5,157.5,172.5,185,185.0,405,,
5,Shannon Callahan,F,SBD,FR-O,84+,Raw,1990,,MN,113.6,-142.5,142.5,152.5,152.5,77.5,82.5,-85,82.5,152.5,162.5,167.5,167.5,402.5,,
6,Kelly Todd,F,SBD,FR-O,84+,Raw,1981,,MO,95.8,125,135,140,140.0,65,70,72.5,72.5,135,145,155,155.0,367.5,,
7,Amy Thompson,F,SBD,FR-O,84+,Raw,1994,,MN,108.95,97.5,105,-115,105.0,-82.5,85,-97.5,85.0,142.5,152.5,-167.5,152.5,342.5,,
8,Kyra Anderson,F,SBD,FR-O,84+,Raw,1994,ELT Powerlifters,MN,102.15,110,117.5,-122.5,117.5,65,70,-72.5,70.0,140,147.5,-152.5,147.5,335,,
9,Michelle Nessman,F,SBD,FR-O,84+,Raw,1985,,MN,111.85,-82.5,87.5,92.5,92.5,-42.5,45,47.5,47.5,117.5,125,132.5,132.5,272.5,,
1,Rondi Quass,F,SBD,FR-T1,57,Raw,2005,,IA,54.7,-85,85,-90,85.0,47.5,-50,-50,47.5,100,-107.5,-110,100.0,232.5,,
1,Sophia Rahn,F,SBD,FR-T1,63,Raw,2005,,MN,62.9,65,75,82.5,82.5,45,50,-55,50.0,97.5,105,115,115.0,247.5,,
1,Ava Cahill,F,SBD,FR-Y2,47,Raw,2008,,MN,44.25,37.5,45,50,50.0,22.5,25,27.5,27.5,60,67.5,-75,67.5,145,,
1,Scott Hansen,M,SBD,M-M1,74,Single-ply,1977,,NE,72.2,142.5,-145,155,155.0,122.5,-127.5,127.5,127.5,185,195,-200,195.0,477.5,,
1,Gary Edwards,M,SBD,M-M3,105,Single-ply,1953,,MN,102.6,230,-245,,230.0,177.5,185,-189,185.0,230,-242.5,-242.5,230.0,645,,
1,Scott Hansen,M,SBD,M-O,74,Single-ply,1977,,NE,72.2,142.5,-145,155,155.0,122.5,-127.5,127.5,127.5,185,195,-200,195.0,477.5,,
1,Kipp Hinz,M,SBD,MR-G,93,Raw,1989,,WI,92.75,250,267.5,-285,267.5,142.5,150,-157.5,150.0,277.5,292.5,-310,292.5,710,,
1,Connor Watley,M,SBD,MR-Jr,66,Raw,1999,,SD,63.6,172.5,182.5,-187.5,182.5,92.5,100,-102.5,100.0,197.5,205,212.5,212.5,495,,
2,Anthony Gamez,M,SBD,MR-Jr,66,Raw,1999,Ruckus,MN,65.4,165,175,177.5,177.5,115,-130,130,130.0,172.5,-185,-185,172.5,480,,
3,David Estrada,M,SBD,MR-Jr,66,Raw,1998,,MN,65.15,127.5,-137.5,145,145.0,97.5,-105,110,110.0,-177.5,185,192.5,192.5,447.5,,
1,Jacob Ramos,M,SBD,MR-Jr,74,Raw,1998,Ruckus,MN,73.95,237.5,245,250,250.0,165,175,180,180.0,245,260,270,270.0,700,,
2,Meir Jablon,M,SBD,MR-Jr,74,Raw,1997,,MN,70.8,162.5,175,182.5,182.5,112.5,117.5,-120,117.5,222.5,235,242.5,242.5,542.5,,
1,Robin De Castro,M,SBD,MR-Jr,83,Raw,1997,,MN,79.6,185,197.5,205,205.0,137.5,142.5,-145,142.5,230,240,247.5,247.5,595,,
2,Devan Rindy,M,SBD,MR-Jr,83,Raw,1998,,ND,74.6,190,197.5,-200,197.5,-142.5,147.5,-152.5,147.5,215,235,-245,235.0,580,,
3,Andrew Wiest,M,SBD,MR-Jr,83,Raw,1998,,MN,82.6,177.5,-187.5,-187.5,177.5,107.5,115,-122.5,115.0,200,215,-220,215.0,507.5,,
4,Michael Schmidt,M,SBD,MR-Jr,83,Raw,1996,,IA,77.35,147.5,152.5,-160,152.5,92.5,-97.5,-100,92.5,185,192.5,205,205.0,450,,
1,Daniel Strittmater,M,SBD,MR-Jr,93,Raw,1996,,MN,90.7,217.5,232.5,240,240.0,142.5,155,165,165.0,247.5,270,277.5,277.5,682.5,,
2,Nicholas DelGiudice,M,SBD,MR-Jr,93,Raw,1996,Flexx Training Systems,MN,92.5,230,240,247.5,247.5,145,152.5,157.5,157.5,230,242.5,257.5,257.5,662.5,,
DQ,Edward Meixner,M,SBD,MR-Jr,93,Raw,1995,,MO,90.95,242.5,247.5,252.5,252.5,157.5,162.5,-170,162.5,-290,-290,-290,,,,
1,Jeremiah Chavez,M,SBD,MR-Jr,105,Raw,1997,,MN,104.6,220,232.5,-235,232.5,157.5,167.5,-170,167.5,245,260,265,265.0,665,,
2,Jack Rinzel,M,SBD,MR-Jr,105,Raw,1997,,MN,104.1,227.5,240,247.5,247.5,137.5,145,147.5,147.5,-242.5,250,260,260.0,655,,
3,Dayton Rasmussen,M,SBD,MR-Jr,105,Raw,1998,,MN,102.8,217.5,227.5,240,240.0,140,147.5,-150,147.5,215,227.5,240,240.0,627.5,,
4,Jake Christensen,M,SBD,MR-Jr,105,Raw,1998,,MN,96.15,210,220,-230,220.0,125,132.5,-137.5,132.5,222.5,235,242.5,242.5,595,,
5,Jon Phan,M,SBD,MR-Jr,105,Raw,1998,,MN,97.75,142.5,150,167.5,167.5,107.5,120,127.5,127.5,60,,,60.0,355,,
DQ,Carson Hofer,M,SBD,MR-Jr,105,Raw,1997,,SD,104.55,240,-247.5,-247.5,240.0,-140,-140,-140,,257.5,-265,-265,257.5,,,
1,Andrew Montoya,M,SBD,MR-Jr,120,Raw,1996,,SD,117.4,272.5,-292.5,-292.5,272.5,-167.5,167.5,-185,167.5,265,277.5,-290,277.5,717.5,,
1,Scott Vuong,M,SBD,MR-M1,59,Raw,1978,,MN,58.05,135,-145,-145,135.0,92.5,100,105,105.0,142.5,160,172.5,172.5,412.5,,
1,Philip White,M,SBD,MR-M1,66,Raw,1978,,MN,63.9,100,110,115,115.0,100,-102.5,-102.5,100.0,150,170,175,175.0,390,,
1,Wade Kish,M,SBD,MR-M1,74,Raw,1970,,MN,74,125,150,170,170.0,100,120,-130,120.0,125,170,-190,170.0,460,,
1,David Koch #1,M,SBD,MR-M1,105,Raw,1970,,SD,101.3,225,240,252.5,252.5,140,150,162.5,162.5,227.5,250,265,265.0,680,,
2,Blake Hanson,M,SBD,MR-M1,105,Raw,1971,,MN,103,235,-245,-257.5,235.0,-127.5,130,137.5,137.5,230,240,250,250.0,622.5,,
3,James Holmberg,M,SBD,MR-M1,105,Raw,1970,,MN,103.95,200,230,-245,230.0,100,,,100.0,185,,,185.0,515,,
1,Todd Hale,M,SBD,MR-M1,120,Raw,1975,,MN,118.15,230,245,255,255.0,155,-170,170,170.0,240,257.5,272.5,272.5,697.5,,
2,Marc Haiar,M,SBD,MR-M1,120,Raw,1972,,NE,110.4,202.5,225,-230,225.0,130,137.5,147.5,147.5,210,230,240,240.0,612.5,,
1,Joe Hays,M,SBD,MR-M2,66,Raw,1960,American Strength,MN,64.65,-127.5,127.5,137.5,137.5,85,90,92.5,92.5,165,175,185,185.0,415,,
1,Steve Harstad,M,SBD,MR-M2,83,Raw,1963,Northern White Lights,MN,82.75,-140,145,155,155.0,97.5,105,107.5,107.5,185,195,200,200.0,462.5,,
2,Roger Rineck,M,SBD,MR-M2,83,Raw,1960,,MN,79.6,140,152.5,-162.5,152.5,-95,100,-105,100.0,165,175,-182.5,175.0,427.5,,
1,James Washek,M,SBD,MR-M2,120,Raw,1964,,MO,117.35,175,180,185,185.0,140,-147.5,147.5,147.5,202.5,212.5,220,220.0,552.5,,
1,Thomas Hay,M,SBD,MR-M3,74,Raw,1956,,MN,72.55,80,-82.5,82.5,82.5,80,82.5,-87.5,82.5,147.5,155,-160,155.0,320,,
1,Richard DeBower,M,SBD,MR-M3,83,Raw,1958,,NE,81.45,112.5,125,-142.5,125.0,75,85,92.5,92.5,145,155,165,165.0,382.5,,
2,Ken Leisinger,M,SBD,MR-M3,83,Raw,1950,,SD,82.65,80,87.5,97.5,97.5,95,102.5,110,110.0,105,115,130,130.0,337.5,,
1,Matt Muccigrosso,M,SBD,MR-M3,93,Raw,1959,,MO,88.35,185,195,-205,195.0,-150,150,-155,150.0,220,230,237.5,237.5,582.5,,
1,Jon Govin,M,SBD,MR-M3,105,Raw,1956,American Strength,MN,102.1,182.5,-192.5,197.5,197.5,90,97.5,105,105.0,197.5,210,220,220.0,522.5,,
2,Dennis Dominiack,M,SBD,MR-M3,105,Raw,1951,,SD,102.7,-92.5,-95,97.5,97.5,62.5,67.5,70,70.0,130,137.5,155,155.0,322.5,,
1,Jerry Shetka,M,SBD,MR-M4,93,Raw,1948,Northern White Lights,MN,90.15,160,175,-185,175.0,95,100,-105,100.0,242.5,-255,255,255.0,530,,
1,Scott Vuong,M,SBD,MR-O,59,Raw,1978,,MN,58.05,135,-145,-145,135.0,92.5,100,105,105.0,142.5,160,172.5,172.5,412.5,,
1,Connor Watley,M,SBD,MR-O,66,Raw,1999,,SD,63.6,172.5,182.5,-187.5,182.5,92.5,100,-102.5,100.0,197.5,205,212.5,212.5,495,,
2,Philip White,M,SBD,MR-O,66,Raw,1978,,MN,63.9,100,110,115,115.0,100,-102.5,-102.5,100.0,150,170,175,175.0,390,,
1,Jeffrey Thompson,M,SBD,MR-O,74,Raw,1993,Ruckus,MN,73,227.5,237.5,-242.5,237.5,160,167.5,-175,167.5,225,235,245,245.0,650,,
2,Anthony Kringstad,M,SBD,MR-O,74,Raw,1987,,ND,72.95,162.5,170,175,175.0,105,-107.5,107.5,107.5,227.5,232.5,235,235.0,517.5,,
3,Zebadiah Johnson,M,SBD,MR-O,74,Raw,2000,,SD,73,190,192.5,-207.5,192.5,-115,120,122.5,122.5,190,202.5,-212.5,202.5,517.5,,
1,Ryan Baylark,M,SBD,MR-O,83,Raw,1988,,KS,82.8,-260,260,-275,260.0,197.5,202.5,-205,202.5,285,292.5,-302.5,292.5,755,,
2,Nehemiah Owusu,M,SBD,MR-O,83,Raw,1995,,MN,80.9,232.5,245,257.5,257.5,127.5,135,-142.5,135.0,255,275,-292.5,275.0,667.5,,
3,Jacob Fixell,M,SBD,MR-O,83,Raw,1995,,MN,80.95,220,232.5,237.5,237.5,120,-125,-125,120.0,255,267.5,-272.5,267.5,625,,
4,Scott Spencer,M,SBD,MR-O,83,Raw,1980,Ruckus,MN,82.25,190,207.5,215,215.0,150,160,165,165.0,210,-232.5,-232.5,210.0,590,,
5,Devan Rindy,M,SBD,MR-O,83,Raw,1998,,ND,74.6,190,197.5,-200,197.5,-142.5,147.5,-152.5,147.5,215,235,-245,235.0,580,,
6,David Dang,M,SBD,MR-O,83,Raw,1987,,MN,79,162.5,165,175,175.0,115,120,-125,120.0,162.5,-170,170,170.0,465,,
7,Benjamin Parker,M,SBD,MR-O,83,Raw,1986,,MN,77.75,-142.5,147.5,162.5,162.5,100,-107.5,107.5,107.5,170,180,-195,180.0,450,,
1,Tommy Schneider,M,SBD,MR-O,93,Raw,1994,American Strength,MN,89.3,242.5,255,260,260.0,147.5,-157.5,-157.5,147.5,272.5,287.5,-292.5,287.5,695,,
2,Matthew Jordan #1,M,SBD,MR-O,93,Raw,1985,,MO,91.5,-255,255,-265,255.0,152.5,157.5,160,160.0,270,-285,,270.0,685,,
3,Daniel Strittmater,M,SBD,MR-O,93,Raw,1996,,MN,90.7,217.5,232.5,240,240.0,142.5,155,165,165.0,247.5,270,277.5,277.5,682.5,,
4,Paul Schreiner,M,SBD,MR-O,93,Raw,1987,American Strength,MN,91.3,227.5,237.5,,237.5,137.5,145,-150,145.0,262.5,267.5,-272.5,267.5,650,,
5,Joseph Varpness,M,SBD,MR-O,93,Raw,1995,,ND,90.45,210,217.5,222.5,222.5,145,150,-152.5,150.0,245,250,-255,250.0,622.5,,
6,Justin Grensing,M,SBD,MR-O,93,Raw,1984,,MN,92.55,202.5,212.5,222.5,222.5,152.5,162.5,165,165.0,215,230,-237.5,230.0,617.5,,
7,Seth Olive,M,SBD,MR-O,93,Raw,1992,,MN,89.1,160,170,-177.5,170.0,-130,130,-135,130.0,-205,205,215,215.0,515,,
1,Micah Rodahl,M,SBD,MR-O,105,Raw,1993,,MN,100.55,267.5,282.5,292.5,292.5,130,137.5,142.5,142.5,235,245,252.5,252.5,687.5,,
2,Garrison Gless,M,SBD,MR-O,105,Raw,1990,,MN,103.25,212.5,230,237.5,237.5,147.5,155,-157.5,155.0,260,-272.5,-272.5,260.0,652.5,,
3,Timothy Callahan,M,SBD,MR-O,105,Raw,1992,,MO,103.05,215,227.5,235,235.0,145,152.5,157.5,157.5,235,250,-260,250.0,642.5,,
4,Jarod Smith,M,SBD,MR-O,105,Raw,1988,ELT Powerlifters,MN,97.25,-197.5,-200,205,205.0,145,155,-165,155.0,235,245,-257.5,245.0,605,,
5,Charles Harris #1,M,SBD,MR-O,105,Raw,1991,,MN,104.55,207.5,217.5,227.5,227.5,122.5,130,-137.5,130.0,220,235,242.5,242.5,600,,
6,Max Feld,M,SBD,MR-O,105,Raw,1993,,MN,99.5,177.5,190,200,200.0,105,115,,115.0,247.5,255,-265,255.0,570,,
7,Zachary Kruger,M,SBD,MR-O,105,Raw,1991,American Strength,MN,100.6,180,192.5,200,200.0,115,122.5,-127.5,122.5,230,242.5,-247.5,242.5,565,,
8,Jake Shevik,M,SBD,MR-O,105,Raw,1981,Northern White Lights,MN,101.3,180,190,-200,190.0,115,122.5,-127.5,122.5,-180,190,200,200.0,512.5,,
1,Haden Dicus,M,SBD,MR-O,120,Raw,2000,,SD,110.3,215,222.5,-230,222.5,130,135,140,140.0,252.5,262.5,-272.5,262.5,625,,
2,Nash Lueken,M,SBD,MR-O,120,Raw,1990,,MN,119.1,225,235,-242.5,235.0,130,-135,-137.5,130.0,200,220,-227.5,220.0,585,,
1,Casey Raaen,M,SBD,MR-O,120+,Raw,1991,,SD,134.75,-252.5,255,-280,255.0,185,197.5,207.5,207.5,252.5,270,-277.5,270.0,732.5,,
2,Jeremy Watters,M,SBD,MR-O,120+,Raw,1982,AFLC Powerlifting,MN,132.95,205,220,-227.5,220.0,115,122.5,127.5,127.5,227.5,242.5,252.5,252.5,600,,
1,Nicholas Kurtz,M,SBD,MR-T1,59,Raw,2003,,MN,53.45,92.5,100,110,110.0,62.5,70,-72.5,70.0,120,137.5,-142.5,137.5,317.5,,
1,Sam Heino,M,SBD,MR-T2,66,Raw,2002,BVPL,MN,64.3,147.5,155,165,165.0,102.5,107.5,-110,107.5,162.5,170,-175,170.0,442.5,,
1,Seth Dasuki,M,SBD,MR-T2,74,Raw,2002,Ruckus,MN,73.45,195,210,218,218.0,112.5,122.5,-127.5,122.5,247.5,258,-266,258.0,598.5,,
2,Jack Rivera,M,SBD,MR-T2,74,Raw,2002,,MN,69.85,152.5,-165,-165,152.5,80,87.5,-92.5,87.5,170,-185,185,185.0,425,,
1,Alexander Herman,M,SBD,MR-T2,105,Raw,2002,,NE,100.65,-195,195,-212.5,195.0,122.5,127.5,135,135.0,255,-275,,255.0,585,,
1,Hunter Rappley,M,SBD,MR-T2,120+,Raw,2002,,IA,150.2,185,-195,202.5,202.5,-105,112.5,-117.5,112.5,205,215,-230,215.0,530,,
1,Cheng Yang,M,SBD,MR-T3,53,Raw,1999,,MN,52,125,140,142.5,142.5,75,85,-87.5,85.0,125,137.5,-140,137.5,365,,
1,Chase Randall,M,SBD,MR-T3,74,Raw,2000,,SD,73.55,190,202.5,212.5,212.5,107.5,-117.5,-117.5,107.5,222.5,237.5,245,245.0,565,,
2,Zebadiah Johnson,M,SBD,MR-T3,74,Raw,2000,,SD,73,190,192.5,-207.5,192.5,-115,120,122.5,122.5,190,202.5,-212.5,202.5,517.5,,
3,Isaac Hale,M,SBD,MR-T3,74,Raw,2001,,MN,70.4,130,137.5,140,140.0,97.5,102.5,-110,102.5,180,192.5,-200,192.5,435,,
1,James Terry,M,SBD,MR-T3,83,Raw,2000,,MN,80.95,192.5,205,215,215.0,135,140,-142.5,140.0,182.5,197.5,210,210.0,565,,
2,Hank Hanson,M,SBD,MR-T3,83,Raw,2000,Brouse Barbell Club,MN,78.45,-182.5,190,195,195.0,110,115,120,120.0,190,197.5,205,205.0,520,,
3,Brian Clark #1,M,SBD,MR-T3,83,Raw,2000,,KS,75.65,187.5,197.5,-205,197.5,95,100,-105,100.0,195,202.5,-205,202.5,500,,
4,Thomas Meyertholen,M,SBD,MR-T3,83,Raw,2001,,MN,78.05,147.5,157.5,165,165.0,97.5,-105,105,105.0,182.5,192.5,202.5,202.5,472.5,,
1,Yehia Aboelnaga,M,SBD,MR-T3,105,Raw,1999,,MN,101.1,205,220,-230,220.0,160,165,-172.5,165.0,230,245,-260,245.0,630,,
1,Haden Dicus,M,SBD,MR-T3,120,Raw,2000,,SD,110.3,215,222.5,-230,222.5,130,135,140,140.0,252.5,262.5,-272.5,262.5,625,,
DQ,Kyle Kisch,M,SBD,MR-T3,120,Raw,2000,BVPL,MN,108.3,-215,-222.5,-227.5,,112.5,-117.5,120,120.0,-202.5,,,,,,
1,Jonah Sandberg,M,SBD,MR-Y3,66,Raw,2006,,MN,64.55,75,82.5,-90,82.5,52.5,57.5,62.5,62.5,107.5,115,122.5,122.5,267.5,,
