Name,Age,Sex,Division,BodyweightKg,WeightClassKg,Squat1Kg,Squat2Kg,Squat3Kg,Best3SquatKg,Bench1Kg,Bench2Kg,Bench3Kg,Best3BenchKg,Deadlift1Kg,Deadlift2Kg,Deadlift3Kg,Best3DeadliftKg,TotalKg,Event,Place,Equipment,Tested
Gerald Lindas,75,M,M_MR_8_APF,73.5,75,,,,,97.5,102.5,105,105,,,,,105,B,1,Raw,
Nicolas Skaleski,19,M,M_TR_3_AAPF,80.4,82.5,,,,,115,-117.5,117.5,117.5,,,,,117.5,B,1,Raw,Yes
David Sweeney,15,M,M_TR_1_AAPF,43.5,52,,,,,62.5,-65,-65,62.5,,,,,62.5,B,1,Raw,Yes
Gerald Lindas,75,M,M_MR_8_AAPF,73.5,75,,,,,97.5,102.5,105,105,,,,,105,B,1,Raw,Yes
Iosif Plagov,77,M,M_MR_8_AAPF,69.5,75,,,,,85,92.5,-97.5,92.5,,,,,92.5,B,2,Raw,Yes
Dave Murphy,57,M,M_MEM_4_APF,114.9,125,,,,,-252.5,255,,255,,,,,255,B,1,Multi-ply,
Noel Levario,38,M,M_SEM_APF,123.9,125,,,,,-347.5,-347.5,-357.5,,,,,,,B,DQ,Multi-ply,
Danny Walker,30,M,M_OR_APF,109.1,110,,,,,165,175,-177.5,175,,,,,175,B,1,Raw,
W.T. Franklin,35,M,M_OR_APF,139.6,140,,,,,207.5,212.5,-217.5,212.5,,,,,212.5,B,1,Raw,
Walter Anczerewicz,70,M,M_MR_7_APF,88.5,90,,,,,102.5,107.5,110,110,,,,,110,B,1,Raw,
Ian Scott,74,M,M_OR_AAPF,77.7,82.5,,,,,105,110,-112.5,110,,,,,110,B,1,Raw,Yes
Matt Ladewski,35,M,M_OEM_APF,108,110,,,,,215,227.5,-237.5,227.5,,,,,227.5,B,1,Multi-ply,
Noel Levario,38,M,M_OEM_APF,123.9,125,,,,,-347.5,-347.5,-357.5,,,,,,,B,DQ,Multi-ply,
Charles Morse,46,M,M_MEM_2_APF,74.8,75,,,,,-165,,,,,,,,,B,DQ,Multi-ply,
Andrew Dauparas-Switalski,21,M,M_JR_AAPF,82.4,82.5,,,,,-142.5,-142.5,-142.5,,,,,,,B,DQ,Raw,Yes
John Lucas,55,M,M_MEM_4_AAPF,123.5,125,,,,,237.5,247.5,-257.5,247.5,,,,,247.5,B,1,Multi-ply,Yes
Talia Bensinger-Colton,40,F,F_OR_AAPF,58.2,60,72.5,82.5,87.5,87.5,55,-60,-60,55,100,107.5,115,115,257.5,SBD,1,Raw,Yes
Dawn Maroscher,44,F,F_OR_AAPF,65.9,67.5,102.5,107.5,110,110,75,87.5,-90,87.5,102.5,110,125,125,322.5,SBD,1,Raw,Yes
Carrie Goldstein,52,F,F_MR_3_AAPF,62.2,67.5,67.5,75,82.5,82.5,57.5,62.5,65,65,92.5,102.5,107.5,107.5,255,SBD,1,Raw,Yes
Dawn Maroscher,44,F,F_MR_1_AAPF,65.9,67.5,102.5,107.5,110,110,75,87.5,-90,87.5,102.5,110,125,125,322.5,SBD,1,Raw,Yes
Lauren Jackson,20,F,F_JR_AAPF,71.7,75,90,97.5,107.5,107.5,47.5,57.5,-62.5,57.5,102.5,117.5,137.5,137.5,302.5,SBD,1,Raw,Yes
Howard Penrose,45,M,M_MR_2_APF,138.2,140,182.5,192.5,200,200,150,160,-170,160,195,200,205,205,565,SBD,1,Raw,
Howard Penrose,45,M,M_MR_2_AAPF,138.2,140,182.5,192.5,200,200,150,160,-170,160,195,200,205,205,565,SBD,1,Raw,Yes
Alex Trinidad,19,M,M_TEM_3_AAPF,72.6,75,247.5,-257.5,,247.5,117.5,125,140,140,200,215,230,230,617.5,SBD,1,Multi-ply,Yes
Nathan Volles,16,M,M_TR_2_AAPF,84.6,90,142.5,155,165,165,97.5,107.5,-115,107.5,165,185,200,200,472.5,SBD,1,Raw,Yes
Grant Shea,16,M,M_TR_2_AAPF,65.5,67.5,102.5,110,112.5,112.5,85,87.5,-92.5,87.5,170,177.5,185,185,385,SBD,2,Raw,Yes
Forrest Grivetti,17,M,M_TEM_2_APF,72.8,75,-210,-210,210,210,132.5,-145,-145,132.5,180,190,202.5,202.5,545,SBD,1,Multi-ply,
Shane Cohan,17,M,M_TEM_2_AAPF,89.2,90,-200,200,212.5,212.5,165,182.5,-197.5,182.5,225,242.5,,242.5,637.5,SBD,1,Multi-ply,Yes
Eric Samuta,13,M,M_TR_1_AAPF,47,52,85,-90,90,90,52.5,57.5,-60,57.5,90,100,105,105,252.5,SBD,1,Raw,Yes
Nicholas Strauss,14,M,M_TR_1_AAPF,99.1,100,107.5,130,147.5,147.5,62.5,72.5,-85,72.5,115,-157.5,157.5,157.5,377.5,SBD,2,Raw,Yes
Louis Ruiz Jr,35,M,M_SEM_AAPF,82.2,82.5,-227.5,-227.5,227.5,227.5,175,182.5,-187.5,182.5,187.5,202.5,-210,202.5,612.5,SBD,1,Multi-ply,Yes
Joe Alagno,30,M,M_OR_APF,87.7,90,130,147.5,160,160,110,117.5,-127.5,117.5,190,210,-227.5,210,487.5,SBD,1,Raw,
Chris Szorc,25,M,M_OR_APF,107.7,110,237.5,255,-267.5,255,162.5,-172.5,-172.5,162.5,267.5,-275,-275,267.5,685,SBD,1,Raw,
Erik Schlick,28,M,M_OR_APF,116.1,125,-242.5,242.5,-250,242.5,157.5,165,-172.5,165,235,242.5,-252.5,242.5,650,SBD,1,Raw,
Russell DiNaro,26,M,M_OR_APF,121.7,125,195,205,230,230,142.5,155,170,170,205,237.5,250,250,650,SBD,2,Raw,
Erik Johnson,26,M,M_OR_APF,118.6,125,195,205,-232.5,205,152.5,165,-172.5,165,225,-242.5,242.5,242.5,612.5,SBD,3,Raw,
Tatum Susberry,25,M,M_OR_APF,143.2,140+,220,227.5,237.5,237.5,185,187.5,-192.5,187.5,257.5,272.5,280,280,705,SBD,1,Raw,
David Addemoulaie,31,M,M_OR_AAPF,109.6,110,-202.5,220,237.5,237.5,-125,125,-145,125,195,210,227.5,227.5,590,SBD,1,Raw,Yes
Russell DiNaro,26,M,M_OR_AAPF,121.7,125,195,205,230,230,142.5,155,170,170,205,237.5,250,250,650,SBD,1,Raw,Yes
Max Keirn-Whiting,26,M,M_OEM_APF,76.4,82.5,205,225,242.5,242.5,162.5,-177.5,-177.5,162.5,197.5,-207.5,207.5,207.5,612.5,SBD,1,Multi-ply,
Corey Akers,37,M,M_OEM_APF,108.8,110,410,-455,455,455,310,325,-330,325,310,-332.5,332.5,332.5,1112.5,SBD,1,Multi-ply,
Joseph Rogers,28,M,M_OEM_APF,106.5,110,320,-342.5,342.5,342.5,142.5,230,-242.5,230,237.5,255,-272.5,255,827.5,SBD,2,Multi-ply,
Joe Niehaus,32,M,M_OEM_APF,108.9,110,235,255,-272.5,255,185,197.5,-205,197.5,210,227.5,240,240,692.5,SBD,3,Multi-ply,
Joe Atef,35,M,M_OEM_APF,121.6,125,355,390,410,410,110,300,-307.5,300,267.5,-290,290,290,1000,SBD,1,Multi-ply,
Nicholas Lepine,28,M,M_OEM_APF,122.8,125,342.5,355,372.5,372.5,235,242.5,250,250,275,287.5,292.5,292.5,915,SBD,2,Multi-ply,
Justin Sepe,25,M,M_OEM_AAPF,75,75,215,237.5,250,250,160,-170,170,170,215,-240,-240,215,635,SBD,1,Multi-ply,Yes
Angelo Giannosa,28,M,M_OEM_AAPF,99.5,100,-280,-280,-280,,157.5,-182.5,-182.5,157.5,250,272.5,290,290,,SBD,DQ,Multi-ply,Yes
Matt Minuth,31,M,M_OEM_AAPF,101.2,110,372.5,387.5,,387.5,340,367.5,-382.5,367.5,297.5,-320,320,320,1075,SBD,1,Multi-ply,Yes
Justin Healy,31,M,M_OEM_AAPF,108.5,110,332.5,-352.5,-365,332.5,-197.5,197.5,212.5,212.5,285,-307.5,307.5,307.5,852.5,SBD,2,Multi-ply,Yes
Joe Atef,35,M,M_OEM_AAPF,121.6,125,355,390,410,410,110,300,-307.5,300,267.5,-290,290,290,1000,SBD,1,Multi-ply,Yes
Dick Zenzen,60,M,M_MEM_5_APF,106.4,110,-287.5,-287.5,-320,,170,185,-187.5,185,-210,210,-260,210,,SBD,DQ,Multi-ply,
Steve Poniatowski,55,M,M_MEM_4_APF,83.7,90,127.5,160,170,170,82.5,95,-100,95,172.5,185,-192.5,185,450,SBD,1,Multi-ply,
Jeffery Orr,56,M,M_MEM_4_AAPF,94.3,100,165,192.5,205,205,102.5,120,-125,120,175,185,,185,510,SBD,1,Multi-ply,Yes
Jordan Evans,54,M,M_MEM_3_APF,88.5,90,,,,,,,,,,,,,,SBD,DQ,Multi-ply,
Jordan Evans,54,M,M_MEM_3_AAPF,88.5,90,,,,,,,,,,,,,,SBD,DQ,Multi-ply,Yes
Brad Saunders,49,M,M_MEM_2_APF,116.8,125,-295,295,-325,295,240,255,-267.5,255,-272.5,272.5,-290,272.5,822.5,SBD,1,Multi-ply,
Daniel Cotter,45,M,M_MEM_2_APF,134.3,140,207.5,227.5,245,245,162.5,170,-182.5,170,185,205,,205,620,SBD,2,Multi-ply,
Daniel Cotter,45,M,M_MEM_2_AAPF,134.3,140,207.5,227.5,245,245,162.5,170,-182.5,170,185,205,,205,620,SBD,1,Multi-ply,Yes
Craig Robertson,41,M,M_MR_1_APF,97.4,100,170,185,200,200,165,175,-182.5,175,215,230,240,240,615,SBD,1,Raw,
Bama Hibbing,43,M,M_MEM_1_APF,89.2,90,275,305,-320,305,155,182.5,192.5,192.5,240,267.5,275,275,772.5,SBD,1,Multi-ply,
Tony Luna,23,M,M_JEM_AAPF,107.8,110,282.5,295,-337.5,295,200,-252.5,-252.5,200,245,260,-272.5,260,755,SBD,1,Multi-ply,Yes
Sean Carbonaro,23,M,M_JR_AAPF,105.4,110,160,175,190,190,110,122.5,132.5,132.5,180,195,210,210,532.5,SBD,1,Raw,Yes
Eric Smason,18,M,M_TEM_3_AAPF,51.9,52,,,,,60,62.5,65,65,127.5,137.5,145,145,210,BD,1,Multi-ply,Yes
William Melrose,37,M,M_SR_AAPF,122.4,125,,,,,125,140,-147.5,140,137.5,167.5,190,190,330,BD,1,Raw,Yes
William Melrose,37,M,M_OR_AAPF,122.4,125,,,,,125,140,-147.5,140,137.5,167.5,190,190,330,BD,1,Raw,Yes
Angelo Giannosa,28,M,M_OEM_AAPF,99.5,100,,,,,157.5,-182.5,-182.5,157.5,250,272.5,290,290,447.5,BD,1,Multi-ply,Yes
Dick Zenzen,60,M,M_MEM_5_APF,106.4,110,,,,,170,185,-187.5,185,-210,210,-260,210,395,BD,1,Multi-ply,
