Name,Age,Division,BodyweightKg,WeightClassKg,Bench1Kg,Bench2Kg,Bench3Kg,Best3BenchKg,Deadlift1Kg,Deadlift2Kg,Deadlift3Kg,Best3DeadliftKg,TotalKg,Place,Event,Equipment,Sex
Beck Middleton,35,F-OR,90,90,70,-77.5,-77.5,70,135,145,150,150,220,1,BD,Raw,F
Greg Oswald,39,M-OR,115.5,125,125,137.5,-145,137.5,220,240,260,260,397.5,1,BD,Raw,M
Laurie John,33,M-OR,89.3,90,160,172.5,180,180,240,255,262.5,262.5,442.5,1,BD,Raw,M
Marc Broxholme,37,M-OR,82.8,90,100,110,115,115,180,200,,200,315,3,BD,Raw,M
Natalie Stone,27,F-OR,93.76,110,72.5,77.5,-80,77.5,135,145,150,150,227.5,1,BD,Raw,F
Peter Giannakis,40,M-OR,89.3,90,100,115,120,120,175,190,205,205,325,2,BD,Raw,M
Tayler Smith,23,M-OR,97.84,100,145,-150,,145,240,,,240,385,1,BD,Raw,M
