Name,WeightClassKg,Division,Sex,Best3SquatKg,Best3BenchKg,Best3DeadliftKg,TotalKg,Event,Equipment,Place
C. Fujisaki,44,Open,F,57.5,45,92.5,195,SBD,Single-ply,1
L. Venturino,44,Open,F,72.5,-37.5,,,SBD,Single-ply,DQ
H. Newigher,48,Open,F,65,47.5,100,212.5,SBD,Single-ply,1
Louise Chen,48,Open,F,-82.5,,,,SBD,Single-ply,DQ
Mary Ryan-Jeffrey,52,Open,F,90,70,110,270,SBD,Single-ply,1
D. Adams,56,Open,F,80,45,102.5,227.5,SBD,Single-ply,1
Cherie Ennis,60,Open,F,100,60,125,285,SBD,Single-ply,1
Leia Kawaii,60,Open,F,95,47.5,137.5,280,SBD,Single-ply,2
B. Alves,60,Open,F,75,47.5,120,242.5,SBD,Single-ply,3
P. Evans,60,Open,F,85,-72.5,137.5,,SBD,Single-ply,DQ
J. McDonald,67.5,Open,F,57.5,35,92.5,185,SBD,Single-ply,1
A. Shaffer,67.5,Open,F,55,45,82.5,182.5,SBD,Single-ply,2
Charlene Debert,75,Open,F,115,72.5,137.5,325,SBD,Single-ply,1
J. Gregory,75,Open,F,120,60,140,320,SBD,Single-ply,2
Meredith Jung,82.5,Open,F,80,72.5,125,277.5,SBD,Single-ply,1
A. Stone,82.5,Open,F,70,47.5,122.5,240,SBD,Single-ply,2
C. Enriques,90+,Open,F,110,67.5,122.5,300,SBD,Single-ply,1
Gordon Santee,60,Novice,M,125,112.5,165,402.5,SBD,Single-ply,1
M. Inouge,60,Novice,M,112.5,97.5,167.5,377.5,SBD,Single-ply,2
R. Fong,60,Novice,M,135,80,160,375,SBD,Single-ply,3
G. Matsumoto,67.5,Novice,M,165,107.5,197.5,470,SBD,Single-ply,1
P. Laranto,67.5,Novice,M,157.5,107.5,192.5,457.5,SBD,Single-ply,2
C. Hartley,67.5,Novice,M,157.5,105,187.5,450,SBD,Single-ply,3
R. Zahniser,67.5,Novice,M,155,100,195,450,SBD,Single-ply,4
Dennis Albert,67.5,Novice,M,137.5,127.5,180,445,SBD,Single-ply,5
Christopher,67.5,Novice,M,132.5,97.5,180,410,SBD,Single-ply,6
A. Gutierrez,75,Novice,M,190,157.5,192.5,540,SBD,Single-ply,1
R. McElwain,75,Novice,M,167.5,100,200,467.5,SBD,Single-ply,2
S. Franklin,75,Novice,M,160,92.5,175,427.5,SBD,Single-ply,3
M. Drake,75,Novice,M,132.5,97.5,180,410,SBD,Single-ply,4
R. Westey,75,Novice,M,130,97.5,155,382.5,SBD,Single-ply,5
H. Adams,75,Novice,M,-112.5,,,,SBD,Single-ply,DQ
T. Powell,75,Novice,M,-100,112.5,125,,SBD,Single-ply,DQ
J. Stefanini,75,Novice,M,-155,,,,SBD,Single-ply,DQ
G. Restrepo,75,Novice,M,-197.5,,,,SBD,Single-ply,DQ
L. Brown,75,Novice,M,-145,117.5,205,,SBD,Single-ply,DQ
G. Neuser,82.5,Novice,M,170,140,182.5,492.5,SBD,Single-ply,1
A. Sapiano,82.5,Novice,M,112.5,105,162.5,380,SBD,Single-ply,2
R. Sanchez,82.5,Novice,M,-145,,,,SBD,Single-ply,DQ
E. Kohler,82.5,Novice,M,-175,,,,SBD,Single-ply,DQ
P. Adams,82.5,Novice,M,-167.5,,,,SBD,Single-ply,DQ
Warner Gardner,90,Novice,M,227.5,150,242.5,620,SBD,Single-ply,1
S. Sinai,90,Novice,M,220,140,227.5,587.5,SBD,Single-ply,2
H. Williams,90,Novice,M,200,152.5,230,582.5,SBD,Single-ply,3
M. Founts,90,Novice,M,197.5,135,245,577.5,SBD,Single-ply,4
D. Yarris,90,Novice,M,187.5,137.5,222.5,547.5,SBD,Single-ply,5
S. Hacnik,90,Novice,M,185,130,210,525,SBD,Single-ply,6
G. Robinson,90,Novice,M,200,115,192.5,507.5,SBD,Single-ply,7
R. Montoya,90,Novice,M,182.5,122.5,197.5,502.5,SBD,Single-ply,8
D. Morse,90,Novice,M,167.5,125,205,497.5,SBD,Single-ply,9
K. Yamada,100,Novice,M,227.5,145,240,612.5,SBD,Single-ply,1
D. Nickle,100,Novice,M,202.5,132.5,262.5,597.5,SBD,Single-ply,2
L. Brookter,100,Novice,M,182.5,152.5,260,595,SBD,Single-ply,3
E. Page,100,Novice,M,205,122.5,207.5,535,SBD,Single-ply,4
S. Hall,100,Novice,M,177.5,137.5,190,505,SBD,Single-ply,5
C. Rainey,100,Novice,M,167.5,117.5,172.5,457.5,SBD,Single-ply,6
C. Salan,100,Novice,M,-167.5,127.5,182.5,,SBD,Single-ply,DQ
C. Pennington,110,Novice,M,240,167.5,262.5,670,SBD,Single-ply,1
Sam Samaniego,110,Novice,M,205,192.5,250,647.5,SBD,Single-ply,2
D. Morrigan,110,Novice,M,192.5,182.5,245,620,SBD,Single-ply,3
T. Rodenburg,125,Novice,M,217.5,132.5,240,590,SBD,Single-ply,1
L. Ransom,125,Novice,M,205,160,205,570,SBD,Single-ply,2
George Bass,67.5,Open,M,192.5,132.5,210,535,SBD,Single-ply,1
T. Fahey,67.5,Open,M,172.5,105,250,527.5,SBD,Single-ply,2
M. Sherman,67.5,Open,M,182.5,142.5,200,525,SBD,Single-ply,3
Greg Raby,67.5,Open,M,177.5,132.5,192.5,502.5,SBD,Single-ply,4
J. Chow,67.5,Open,M,157.5,132.5,182.5,472.5,SBD,Single-ply,5
T. Weinrich,75,Open,M,215,157.5,227.5,600,SBD,Single-ply,1
Richard Cirigliano,75,Open,M,190,142.5,247.5,580,SBD,Single-ply,2
J. Fugitt,75,Open,M,190,122.5,210,522.5,SBD,Single-ply,3
T. Howard,75,Open,M,160,107.5,170,437.5,SBD,Single-ply,4
J. Sullivan,75,Open,M,207.5,-170,,,SBD,Single-ply,DQ
D. Meier,75,Open,M,-142.5,,,,SBD,Single-ply,DQ
F. Siebert,75,Open,M,-177.5,,,,SBD,Single-ply,DQ
C. Collins,82.5,Open,M,272.5,155,280,707.5,SBD,Single-ply,1
L. Cascio,82.5,Open,M,232.5,155,217.5,605,SBD,Single-ply,2
R. Marinello,82.5,Open,M,220,140,215,575,SBD,Single-ply,3
R. Silva,82.5,Open,M,210,-192.5,,,SBD,Single-ply,DQ
Bill Ennis,90,Open,M,307.5,220,302.5,830,SBD,Single-ply,1
Charlie Gienau,90,Open,M,302.5,207.5,282.5,792.5,SBD,Single-ply,2
D. Smith,90,Open,M,272.5,145,285,702.5,SBD,Single-ply,3
Tony Pinelli,90,Open,M,262.5,-182.5,,,SBD,Single-ply,DQ
R. Gaines,100,Open,M,272.5,182.5,252.5,707.5,SBD,Single-ply,1
S. Brown,100,Open,M,250,170,275,695,SBD,Single-ply,2
George Zangas,100,Open,M,257.5,162.5,272.5,692.5,SBD,Single-ply,3
G. Fortin,100,Open,M,272.5,,,,SBD,Single-ply,DQ
R. McKee,100,Open,M,247.5,-180,,,SBD,Single-ply,DQ
Jeff Lawson,110,Open,M,320,192.5,317.5,830,SBD,Single-ply,1
M. Moore,110,Open,M,275,180,272.5,727.5,SBD,Single-ply,2
Larry Greenhagen,110,Open,M,242.5,142.5,295,680,SBD,Single-ply,3
Manny Burruel,125,Open,M,320,190,282.5,792.5,SBD,Single-ply,1
W. Robinson,125,Open,M,227.5,182.5,240,650,SBD,Single-ply,2
Bob Packer,125,Open,M,262.5,122.5,250,635,SBD,Single-ply,3
D. Reed,125+,Open,M,195,147.5,250,592.5,SBD,Single-ply,1
